<svg width="30" height="30" viewBox="0 0 30 30" fill="none" xmlns="http://www.w3.org/2000/svg">
<g clip-path="url(#clip0_0_5)">
<path d="M12.8232 15.8858C12.9381 17.8127 12.6011 19.5786 13.1717 21.2967C13.6552 22.751 14.6389 23.9866 15.9476 24.7834C17.2562 25.5803 18.8051 25.8868 20.3184 25.6483C21.8223 25.4088 23.1916 24.6409 24.1806 23.4826C25.1697 22.3242 25.7138 20.8512 25.7154 19.3277C25.7403 13.7617 25.7154 8.19575 25.725 2.62977C25.7165 2.32461 25.737 2.01934 25.7862 1.71807C25.8781 1.21859 26.1472 0.769119 26.544 0.452378C26.9408 0.135638 27.4386 -0.0270516 27.9458 -0.00574192C28.4643 0.0126533 28.9581 0.220721 29.3335 0.579031C29.709 0.937342 29.94 1.42099 29.9828 1.93833C29.9933 2.06893 29.9971 2.19999 29.9943 2.33098C29.9943 8.00614 30.0096 13.6813 29.9943 19.3545C29.9762 21.992 28.9853 24.5299 27.2115 26.4811C25.4378 28.4324 23.0063 29.6596 20.3835 29.9272C15.0498 30.5018 10.0549 26.9125 8.86024 21.6453C8.681 20.8347 8.59365 20.0065 8.59987 19.1764C8.59987 16.4694 8.59987 13.7624 8.59987 11.0554C8.59987 9.82571 9.01723 9.07106 9.92853 8.73205C10.9585 8.34898 11.7779 8.70332 12.515 9.46371C13.8551 10.8428 15.224 12.1873 16.5833 13.5434C16.7307 13.6909 16.8915 13.8249 17.1921 14.0969C17.0887 12.1816 17.4046 10.4578 16.8628 8.74928C16.3925 7.29087 15.4211 6.0462 14.1209 5.23596C12.8208 4.42572 11.2758 4.10226 9.76005 4.32293C8.23275 4.55326 6.83961 5.32663 5.83605 6.50125C4.83249 7.67588 4.28576 9.17304 4.29611 10.7183C4.27696 16.2402 4.29611 21.7621 4.29611 27.2841C4.30356 27.5894 4.28691 27.8949 4.24633 28.1977C4.16587 28.7094 3.89982 29.1735 3.49899 29.5013C3.09816 29.8292 2.59064 29.9979 2.07339 29.9751C1.56649 29.9573 1.08283 29.758 0.710396 29.4135C0.337963 29.069 0.101506 28.6022 0.0440361 28.0981C0.0290589 27.9466 0.0226658 27.7944 0.02489 27.6422C0.02489 21.9671 -0.0114852 16.29 0.02489 10.6167C0.0328118 9.2041 0.320586 7.80704 0.871569 6.50636C1.42255 5.20567 2.22581 4.02717 3.2349 3.03901C4.24398 2.05084 5.43887 1.27262 6.75047 0.749348C8.06206 0.226073 9.46434 -0.0318714 10.8762 -0.0095705C16.4971 0.0670432 21.1685 4.52404 21.381 10.1417C21.4939 13.1699 21.4154 16.2076 21.4116 19.2415C21.4116 20.1858 20.9694 20.8868 20.0868 21.2354C19.6918 21.4072 19.253 21.4507 18.832 21.36C18.4109 21.2693 18.0289 21.0489 17.7396 20.7298C16.3025 19.2971 14.8666 17.8625 13.432 16.426C13.2827 16.2919 13.1238 16.1617 12.8232 15.8858Z" fill="white"/>
</g>
<defs>
<clipPath id="clip0_0_5">
<rect width="30" height="30" fill="white"/>
</clipPath>
</defs>
</svg>
